
New features
============

Implementation
==============

Bug fixes
=========

issues :

Brython site
============

Demos
=====
- remove spreadsheet demo (the UI needs rewriting)

Standard distribution
=====================

Documentation
=============
